\relax 
\@writefile{lof}{\contentsline {figure}{\numberline {1}{\ignorespaces The whole system}}{1}}
\newlabel{fig:full}{{1}{1}}
\@writefile{toc}{\contentsline {section}{\numberline {3}Modeling - Identification}{1}}
\@writefile{toc}{\contentsline {subsection}{\numberline {3.1}Modeling based on a priori knowledge}{1}}
\@writefile{lof}{\contentsline {figure}{\numberline {2}{\ignorespaces Open loops for exercise 3.1}}{1}}
\newlabel{fig:ex31}{{2}{1}}
\newlabel{eq:Vx}{{7}{2}}
\@writefile{lof}{\contentsline {figure}{\numberline {3}{\ignorespaces The open loop of $V_\Omega $}}{2}}
\newlabel{fig:ex31b}{{3}{2}}
\newlabel{eq:Vo}{{11}{2}}
\@writefile{toc}{\contentsline {subsection}{\numberline {3.2}Identification}{2}}
\@writefile{lof}{\contentsline {figure}{\numberline {4}{\ignorespaces The whole system in terms of transfer functions}}{3}}
\newlabel{fig:full_t}{{4}{3}}
\@writefile{toc}{\contentsline {section}{\numberline {4}Control design: frequency-based approach}{3}}
\@writefile{toc}{\contentsline {subsection}{\numberline {4.1}Block diagram}{3}}
\@writefile{toc}{\contentsline {subsection}{\numberline {4.2}Speed loop}{3}}
\newlabel{eq:Hs}{{12}{3}}
\@writefile{toc}{\contentsline {subsection}{\numberline {4.3}Position loop}{4}}
\@writefile{toc}{\contentsline {subsection}{\numberline {4.4}Validation through simulation}{4}}
\@writefile{lof}{\contentsline {figure}{\numberline {5}{\ignorespaces The step response of the position system. The maxima is reached around the right time and the overshoot is within the limits. There is no steady state error in the system.}}{5}}
\newlabel{fig:step}{{5}{5}}
\@writefile{lof}{\contentsline {figure}{\numberline {6}{\ignorespaces The system with digital control}}{6}}
\@writefile{toc}{\contentsline {section}{\numberline {A}Proof why an integrator negates steady state error}{7}}
\@writefile{toc}{\contentsline {section}{\numberline {B}Plots}{7}}
\@writefile{lof}{\contentsline {figure}{\numberline {7}{\ignorespaces The speed measurement and parametric fit. The lowest measurement was made at $\omega \approx 19$ and highest at $\omega \approx 180$.}}{8}}
\newlabel{fig:speed}{{7}{8}}
\@writefile{lof}{\contentsline {figure}{\numberline {8}{\ignorespaces The position measurement with the corresponding parametric fit}}{8}}
\newlabel{fig:pos}{{8}{8}}
\@writefile{lof}{\contentsline {figure}{\numberline {9}{\ignorespaces The difference introduced by removing time constant in the $V_x(s)/U(s)$ loop. The frequency range of themeasurements is marked with points. As can be seen, the curves are equal within the frequency range with only slight deviation in phases.}}{9}}
\newlabel{fig:bodes1}{{9}{9}}
\@writefile{lof}{\contentsline {figure}{\numberline {10}{\ignorespaces The difference introduced by removing time constant in the $V_\Omega (s)/U(s)$ loop. Again, the curves are almost identical within the frequency range. There's slightly more deviation in the phase compared to figure 9\hbox {}}}{9}}
\newlabel{fig:bodes2}{{10}{9}}
\@writefile{lof}{\contentsline {figure}{\numberline {11}{\ignorespaces The open loop transfer function for position loop.}}{10}}
\newlabel{fig:open_pos}{{11}{10}}
