\relax 
\providecommand\hyper@newdestlabel[2]{}
\providecommand\HyperFirstAtBeginDocument{\AtBeginDocument}
\HyperFirstAtBeginDocument{\ifx\hyper@anchor\@undefined
\global\let\oldcontentsline\contentsline
\gdef\contentsline#1#2#3#4{\oldcontentsline{#1}{#2}{#3}}
\global\let\oldnewlabel\newlabel
\gdef\newlabel#1#2{\newlabelxx{#1}#2}
\gdef\newlabelxx#1#2#3#4#5#6{\oldnewlabel{#1}{{#2}{#3}}}
\AtEndDocument{\ifx\hyper@anchor\@undefined
\let\contentsline\oldcontentsline
\let\newlabel\oldnewlabel
\fi}
\fi}
\global\let\hyper@last\relax 
\gdef\HyperFirstAtBeginDocument#1{#1}
\providecommand\HyField@AuxAddToFields[1]{}
\providecommand\HyField@AuxAddToCoFields[2]{}
\@writefile{toc}{\contentsline {section}{\numberline {1}Continuous time}{1}{section.1}}
\@writefile{toc}{\contentsline {subsection}{\numberline {1.a)}}{1}{subsection.1.1}}
\@writefile{lof}{\contentsline {figure}{\numberline {1}{\ignorespaces The block diagram of the system}}{1}{figure.1}}
\newlabel{fig:full}{{1}{1}{The block diagram of the system}{figure.1}{}}
\@writefile{toc}{\contentsline {subsection}{\numberline {1.b)}}{1}{subsection.1.2}}
\@writefile{toc}{\contentsline {subsection}{\numberline {1.c)}}{1}{subsection.1.3}}
\@writefile{lof}{\contentsline {figure}{\numberline {2}{\ignorespaces Approximate fits on the bode diagrams}}{2}{figure.2}}
\newlabel{fig:fit}{{2}{2}{Approximate fits on the bode diagrams}{figure.2}{}}
\@writefile{lot}{\contentsline {table}{\numberline {1}{\ignorespaces Table for finding poles from Bode plots}}{2}{table.1}}
\newlabel{tb:bode}{{1}{2}{Table for finding poles from Bode plots}{table.1}{}}
\@writefile{toc}{\contentsline {subsection}{\numberline {1.d)}}{2}{subsection.1.4}}
\@writefile{toc}{\contentsline {subsection}{\numberline {1.e)}}{2}{subsection.1.5}}
\@writefile{lof}{\contentsline {figure}{\numberline {3}{\ignorespaces The Nyquist plot approximated from values extracted from the Bode plot}}{3}{figure.3}}
\newlabel{fig:nyquist}{{3}{3}{The Nyquist plot approximated from values extracted from the Bode plot}{figure.3}{}}
\@writefile{toc}{\contentsline {subsection}{\numberline {1.f)}}{3}{subsection.1.6}}
\@writefile{toc}{\contentsline {subsection}{\numberline {1.g)}}{3}{subsection.1.7}}
\@writefile{toc}{\contentsline {subsection}{\numberline {1.h)}}{3}{subsection.1.8}}
\@writefile{toc}{\contentsline {subsection}{\numberline {1.i)}}{4}{subsection.1.9}}
