\BOOKMARK [1][-]{section.1}{Continuous time}{}% 1
\BOOKMARK [2][-]{subsection.1.1}{}{section.1}% 2
\BOOKMARK [2][-]{subsection.1.2}{}{section.1}% 3
\BOOKMARK [2][-]{subsection.1.3}{}{section.1}% 4
\BOOKMARK [2][-]{subsection.1.4}{}{section.1}% 5
\BOOKMARK [2][-]{subsection.1.5}{}{section.1}% 6
\BOOKMARK [2][-]{subsection.1.6}{}{section.1}% 7
\BOOKMARK [2][-]{subsection.1.7}{}{section.1}% 8
\BOOKMARK [2][-]{subsection.1.8}{}{section.1}% 9
\BOOKMARK [2][-]{subsection.1.9}{}{section.1}% 10
