        digraph G{
            splines=ortho;
            {rank=same SS ST J2 A M EN}
            J2 [label="", shape=circle]
            A  [label="A", shape=box]
            M  [label="motor", shape=box]
            SS [label="Speed", shape=box]
            ST [label="", shape=none]
            EN [label="", shape=none]
            ST -> J2[label = "u(t)"];
            J2 -> A;
            A->M[label= "u_m(t)"];
            M->SS[label="\Omega(t)"];
            SS->EN[taillabel="V_\Omega(t)"];
        }
    
