        digraph G{
            ranksep=0.1;
            nodesep=0.05;
            splines=ortho;
            {rank=min SS AD1}
            {rank=same OFF}
            {rank=same ST J0 C1 C2 J1 J2 A M R EN DAC}
            {rank=same PS AD2}
            C1 [label="C_1(z)", shape=box, weight=100]
            C2 [label="C_2(z)", shape=box]
            J0 [label="", shape=circle]
            J1 [label="", shape=circle]
            J2 [label="", shape=circle]
            A  [label="A", shape=box]
            M  [label="motor", shape=box]
            R  [label="Gear", shape=box]
            PS [label="Position", shape=box]
            SS [label="Speed", shape=box]
            ST [label="", shape=none]
            EN [label="", shape=none]
            OFF[label="", shape=none]
            AD1[label="ADC", shape=box]
            AD2[label="ADC", shape=box]
            DAC[label="DAC", shape=box]
            ST-> J0 [label="e(t)"];
            J0 -> C1[ label=""];
            C1 -> J1[ label="v(t)"];
            J1 -> C2[label = ""];
            C2 -> J2[label = "u(t)"];
            J2 -> DAC;
            DAC->A;
            A->M;
            M->SS[label="\Omega(t)"];
            M->R[label="\theta_m(t)"];
            R->EN[label="x(t)"];
            R->PS;
            AD2->PS[taillabel="V_x(t)",dir=back];
            AD2->J0;
            AD1->SS[taillabel="V_\Omega(t)",dir=back];
            AD1->J1;
            OFF->J2[label="offset"];
        }
    
