        digraph G{
            ranksep=0.1;
            nodesep=0.05;
            splines=ortho;
            {rank=sama SS}
            {rank=same ST J0 C1 C2 J1 J2 A M R EN}
            {rank=same PS}
            C1 [label="C_1(s)", shape=box, weight=100]
            C2 [label="C_2(s)", shape=box]
            J0 [label="", shape=circle]
            J1 [label="", shape=circle]
            J2 [label="", shape=circle]
            A  [label="A", shape=box]
            M  [label="motor", shape=box]
            R  [label="Gear", shape=box]
            PS [label="Position", shape=box]
            SS [label="Speed", shape=box]
            ST [label="", shape=none]
            EN [label="", shape=none]
            ST-> J0 [label="e(t)"];
            J0 -> C1[ label=""];
            C1 -> J1[ label="v(t)"];
            J1 -> C2[label = ""];
            C2 -> J2[label = "u(t)"];
            J2 -> A;
            A->M;
            M->SS[label="\Omega(t)"];
            M->R[label="\theta_m(t)"];
            R->EN[label="x(t)"];
            R->PS;
            PS->J0[taillabel="V_x(t)"];
            SS->J1[taillabel="V_\Omega(t)"];
        }
    
