        digraph G{
            ranksep=0.1;
            nodesep=0.05;
            splines=ortho;
            {rank=same PT H2}
            {rank=same ST EN H1 J0 J1 IN K0 HV}
            subgraph cluster_0 {
                label=""
                H1 [label="H_1(s)", shape=box];
                H2 [label="H_2(s)", shape=box];
                HV [label="H_v(s)", shape=box];
                J1 [label="", shape=circle];
                IN [label="\frac{1}{s}", shape=box]
            }
            ST [label="", shape=none]
            PT [label="", shape=none]
            EN [label="", shape=none]
            KC [label="K_c", shape=box]
            J0 [label="", shape=circle]
            K0 [label="K", shape=box]
            ST -> J0 [label="V_e(s)", headlabel="+"]
            H1 -> J1 [taillabel="+"];
            H2 -> J1 [headlabel="-"];
            PT -> H2 [label="Q_v(s)"];
            J1 -> IN;
            IN -> EN [label="N_e(s)"];
            IN -> KC;
            KC -> J0 [taillabel="V_{N_e}", headlabel="-"];
            J0 -> K0 [label="\epsilon(s)"];
            K0 -> HV [label="U(s)"];
            HV -> H1 [label="Q_e(s)"];
        }

    
