\relax 
\@writefile{lof}{\contentsline {figure}{\numberline {1}{\ignorespaces The whole system}}{1}}
\newlabel{fig:full}{{1}{1}}
\@writefile{toc}{\contentsline {section}{\numberline {3}Modeling - Identification}{1}}
\@writefile{toc}{\contentsline {subsection}{\numberline {3.1}Modeling based on a priori knowledge}{1}}
\@writefile{lof}{\contentsline {figure}{\numberline {2}{\ignorespaces Open loops for exercise 3.1}}{1}}
\newlabel{fig:ex31}{{2}{1}}
\@writefile{lof}{\contentsline {figure}{\numberline {3}{\ignorespaces The open loop of $V_\Omega $}}{2}}
\newlabel{fig:ex31b}{{3}{2}}
\@writefile{toc}{\contentsline {subsection}{\numberline {3.2}Identification}{2}}
\@writefile{lof}{\contentsline {figure}{\numberline {4}{\ignorespaces The whole system in terms of transfer functions}}{3}}
\newlabel{fig:full_t}{{4}{3}}
\@writefile{toc}{\contentsline {section}{\numberline {4}Control design: frequency-based approach}{3}}
\@writefile{toc}{\contentsline {subsection}{\numberline {4.1}Block diagram}{3}}
\@writefile{toc}{\contentsline {subsection}{\numberline {4.2}Speed loop}{3}}
\newlabel{eq:Hs}{{12}{3}}
\@writefile{toc}{\contentsline {subsection}{\numberline {4.3}Position loop}{3}}
\@writefile{lof}{\contentsline {figure}{\numberline {5}{\ignorespaces The system with digital control}}{4}}
