\relax 
\providecommand\hyper@newdestlabel[2]{}
\providecommand\HyperFirstAtBeginDocument{\AtBeginDocument}
\HyperFirstAtBeginDocument{\ifx\hyper@anchor\@undefined
\global\let\oldcontentsline\contentsline
\gdef\contentsline#1#2#3#4{\oldcontentsline{#1}{#2}{#3}}
\global\let\oldnewlabel\newlabel
\gdef\newlabel#1#2{\newlabelxx{#1}#2}
\gdef\newlabelxx#1#2#3#4#5#6{\oldnewlabel{#1}{{#2}{#3}}}
\AtEndDocument{\ifx\hyper@anchor\@undefined
\let\contentsline\oldcontentsline
\let\newlabel\oldnewlabel
\fi}
\fi}
\global\let\hyper@last\relax 
\gdef\HyperFirstAtBeginDocument#1{#1}
\providecommand\HyField@AuxAddToFields[1]{}
\providecommand\HyField@AuxAddToCoFields[2]{}
\@writefile{toc}{\contentsline {section}{\numberline {1}Basic concepts}{1}{section.1}}
\@writefile{toc}{\contentsline {subsection}{\numberline {1.1}Stability}{1}{subsection.1.1}}
\@writefile{toc}{\contentsline {subsection}{\numberline {1.2}Rapidity}{1}{subsection.1.2}}
\@writefile{toc}{\contentsline {subsection}{\numberline {1.3}Precision}{1}{subsection.1.3}}
\@writefile{toc}{\contentsline {section}{\numberline {2}Components}{1}{section.2}}
\@writefile{toc}{\contentsline {section}{\numberline {3}Nyquist criterion}{1}{section.3}}
\newlabel{ch:nyquist}{{3}{1}{Nyquist criterion}{section.3}{}}
\@writefile{toc}{\contentsline {subsection}{\numberline {3.1}Nyquist plot}{2}{subsection.3.1}}
\@writefile{toc}{\contentsline {subsubsection}{\numberline {3.1.1}Simplified Nyquist criterion}{2}{subsubsection.3.1.1}}
\@writefile{toc}{\contentsline {subsection}{\numberline {3.2}Nyquist criterion in discrete time}{2}{subsection.3.2}}
\@writefile{toc}{\contentsline {section}{\numberline {4}Stability margin}{2}{section.4}}
\@writefile{lof}{\contentsline {figure}{\numberline {1}{\ignorespaces Phase and gain margins in the Nyquist plot}}{3}{figure.1}}
\newlabel{fig:margins_nyquist}{{1}{3}{Phase and gain margins in the Nyquist plot}{figure.1}{}}
\@writefile{toc}{\contentsline {subsection}{\numberline {4.1}Phase and gain margin in the Bode plane}{4}{subsection.4.1}}
\@writefile{toc}{\contentsline {subsection}{\numberline {4.2}Phase and gain margin in the Black-Nichols plane}{4}{subsection.4.2}}
\@writefile{toc}{\contentsline {section}{\numberline {5}Robustness aspects}{4}{section.5}}
\@writefile{toc}{\contentsline {subsection}{\numberline {5.1}Robustness against neglective dynamics}{4}{subsection.5.1}}
\@writefile{toc}{\contentsline {subsection}{\numberline {5.2}Modulus margin}{4}{subsection.5.2}}
\@writefile{toc}{\contentsline {section}{\numberline {6}Designing controllers in continuous time}{4}{section.6}}
